37916456@N02=departmentofenergy=PD-USGov-DOE
44065807@N03=fccdotgov=PD-USGov-FCC
49984523@N02=samhsa=PD-USGov-HHS
58220939@N03=usgao=PD-USGov-GAO
9364837@N06=statephotos=PD-USGov-DOS
47923257@N08=ustreasury=PD-USGov-Treasury
35591378@N03=whitehouse=PD-USGov-POTUS
39736050@N02=fdaphotos=PD-USGov-FDA
30884892@N08=coast_guard=PD-USCG
24400159@N05=usepagov=PD-USGov-EPA
47445478@N05=hhsgov=PD-USGov-HHS
65191584@N07=uscapitol=PD-USGov-Congress-AOC
46658241@N06=usaid_images=PD-USGov-USAID
60088208@N06=usaid_pakistan=PD-USGov-USAID
49045206@N03=usaidafghanistan=PD-USGov-USAID
57424551@N06=usaidafrica=PD-USGov-USAID
39736050@N02=fdaphotos=PD-USGov-FDA
37157086@N02=nsf_beta=PD-USGov-NSF
78004229@N05=doe-oakridge=PD-USGov-DOE
59094030@N08=ciagov=PD-USGov-CIA
52057813@N07=sacramentodistrict=PD-USGov-Military-Army-USACE
47999528@N04=nida-nih=PD-USGov-NIH
54563451@N08=usgsbiml=PD-USGov-USGS